\relax 
\providecommand\hyper@newdestlabel[2]{}
\providecommand\HyperFirstAtBeginDocument{\AtBeginDocument}
\HyperFirstAtBeginDocument{\ifx\hyper@anchor\@undefined
\global\let\oldcontentsline\contentsline
\gdef\contentsline#1#2#3#4{\oldcontentsline{#1}{#2}{#3}}
\global\let\oldnewlabel\newlabel
\gdef\newlabel#1#2{\newlabelxx{#1}#2}
\gdef\newlabelxx#1#2#3#4#5#6{\oldnewlabel{#1}{{#2}{#3}}}
\AtEndDocument{\ifx\hyper@anchor\@undefined
\let\contentsline\oldcontentsline
\let\newlabel\oldnewlabel
\fi}
\fi}
\global\let\hyper@last\relax 
\gdef\HyperFirstAtBeginDocument#1{#1}
\providecommand\HyField@AuxAddToFields[1]{}
\providecommand\HyField@AuxAddToCoFields[2]{}
\@writefile{toc}{\contentsline {section}{\numberline {1}Introduction}{1}{section.1}}
\newlabel{eqn:lie}{{1}{2}{Introduction}{equation.1.1}{}}
\@writefile{toc}{\contentsline {section}{\numberline {2}The Liouville Equation and Periodic Orbits}{2}{section.2}}
\newlabel{eqn:lville}{{2}{2}{}{equation.2.2}{}}
\newlabel{eqn:exp}{{2}{3}{}{lem.2}{}}
\citation{khesin2009}
\@writefile{toc}{\contentsline {section}{\numberline {3}The Liouville Equation as Euler-Arnold Equations}{5}{section.3}}
\citation{hirsch1976}
\citation{khesin2009}
\citation{audin2004}
\newlabel{thm:eul-arn}{{2}{7}{}{thm.2}{}}
\newlabel{def:symp-form}{{6}{7}{}{defn.6}{}}
\newlabel{lem:flow}{{4}{7}{}{lem.4}{}}
\newlabel{thm:deriv}{{4}{8}{}{thm.4}{}}
\@writefile{toc}{\contentsline {section}{\numberline {A}Conditions for Skew-symmetry}{8}{appendix.A}}
\bibstyle{unsrt}
\bibdata{stat-symp}
\bibcite{khesin2009}{1}
\bibcite{hirsch1976}{2}
\bibcite{audin2004}{3}
