\contentsline {section}{\numberline {1}Introduction}{1}{section.1}
\contentsline {section}{\numberline {2}The Liouville Equation and Periodic Orbits}{2}{section.2}
\contentsline {section}{\numberline {3}The Liouville Equation as Euler-Arnold Equations}{5}{section.3}
\contentsline {section}{\numberline {A}Conditions for Skew-symmetry}{8}{appendix.A}
