\relax 
\providecommand\hyper@newdestlabel[2]{}
\providecommand\HyperFirstAtBeginDocument{\AtBeginDocument}
\HyperFirstAtBeginDocument{\ifx\hyper@anchor\@undefined
\global\let\oldcontentsline\contentsline
\gdef\contentsline#1#2#3#4{\oldcontentsline{#1}{#2}{#3}}
\global\let\oldnewlabel\newlabel
\gdef\newlabel#1#2{\newlabelxx{#1}#2}
\gdef\newlabelxx#1#2#3#4#5#6{\oldnewlabel{#1}{{#2}{#3}}}
\AtEndDocument{\ifx\hyper@anchor\@undefined
\let\contentsline\oldcontentsline
\let\newlabel\oldnewlabel
\fi}
\fi}
\global\let\hyper@last\relax 
\gdef\HyperFirstAtBeginDocument#1{#1}
\providecommand\HyField@AuxAddToFields[1]{}
\providecommand\HyField@AuxAddToCoFields[2]{}
\@writefile{toc}{\contentsline {section}{\numberline {1}Introduction}{1}{section.1}}
\@writefile{toc}{\contentsline {section}{\numberline {2}Microcanonical Ensemble}{1}{section.2}}
\@writefile{toc}{\contentsline {subsection}{\numberline {2.1}The Liouville Equation}{1}{subsection.2.1}}
\citation{abraham1978}
\newlabel{eqn:ham-flow}{{1}{2}{The Liouville Equation}{equation.2.1}{}}
\newlabel{eqn:liouville}{{2}{2}{The Liouville Equation}{equation.2.2}{}}
\@writefile{toc}{\contentsline {subsection}{\numberline {2.2}Periodic Orbits}{2}{subsection.2.2}}
\newlabel{eqn:c-liouville}{{3}{3}{Periodic Orbits}{equation.2.3}{}}
\@writefile{toc}{\contentsline {subsection}{\numberline {2.3}Examples}{4}{subsection.2.3}}
\citation{khesin2009}
\@writefile{toc}{\contentsline {subsection}{\numberline {2.4}The Liouville Equation as an Euler-Arnold Equation}{6}{subsection.2.4}}
\bibstyle{unsrt}
\bibdata{stat-symp}
\@writefile{toc}{\contentsline {subsection}{\numberline {2.5}Action-Angle Coordinates}{7}{subsection.2.5}}
\bibcite{abraham1978}{1}
\bibcite{khesin2009}{2}
