PWD /mnt/c/Users/samue/bitbucket/samueltwallace/latex-docs/school-assignments/ModernAnalysis
INPUT /etc/texmf/web2c/texmf.cnf
INPUT /usr/share/texmf/web2c/texmf.cnf
INPUT /usr/share/texlive/texmf-dist/web2c/texmf.cnf
INPUT /var/lib/texmf/web2c/pdftex/pdflatex.fmt
INPUT MeasureTheory.tex
OUTPUT MeasureTheory.log
INPUT /usr/share/texlive/texmf-dist/tex/latex/base/article.cls
INPUT /usr/share/texlive/texmf-dist/tex/latex/base/article.cls
INPUT /usr/share/texlive/texmf-dist/tex/latex/base/size10.clo
INPUT /usr/share/texlive/texmf-dist/tex/latex/base/size10.clo
INPUT /usr/share/texlive/texmf-dist/tex/latex/amsmath/amsmath.sty
INPUT /usr/share/texlive/texmf-dist/tex/latex/amsmath/amsmath.sty
INPUT /usr/share/texlive/texmf-dist/tex/latex/amsmath/amstext.sty
INPUT /usr/share/texlive/texmf-dist/tex/latex/amsmath/amstext.sty
INPUT /usr/share/texlive/texmf-dist/tex/latex/amsmath/amsgen.sty
INPUT /usr/share/texlive/texmf-dist/tex/latex/amsmath/amsgen.sty
INPUT /usr/share/texlive/texmf-dist/tex/latex/amsmath/amsbsy.sty
INPUT /usr/share/texlive/texmf-dist/tex/latex/amsmath/amsbsy.sty
INPUT /usr/share/texlive/texmf-dist/tex/latex/amsmath/amsopn.sty
INPUT /usr/share/texlive/texmf-dist/tex/latex/amsmath/amsopn.sty
INPUT /home/swallace6859/texmf/tex/latex/amsfonts/amsfonts.sty
INPUT /home/swallace6859/texmf/tex/latex/amsfonts/amsfonts.sty
INPUT /usr/share/texlive/texmf-dist/tex/latex/jknapltx/mathrsfs.sty
INPUT /usr/share/texlive/texmf-dist/tex/latex/jknapltx/mathrsfs.sty
INPUT /home/swallace6859/texmf/tex/latex/amsfonts/amssymb.sty
INPUT /home/swallace6859/texmf/tex/latex/amsfonts/amssymb.sty
INPUT /usr/share/texlive/texmf-dist/tex/latex/amscls/amsthm.sty
INPUT /usr/share/texlive/texmf-dist/tex/latex/amscls/amsthm.sty
INPUT MeasureTheory.aux
INPUT MeasureTheory.aux
OUTPUT MeasureTheory.aux
INPUT /usr/share/texlive/texmf-dist/fonts/map/fontname/texfonts.map
INPUT /usr/share/texlive/texmf-dist/fonts/tfm/public/cm/cmr17.tfm
INPUT /usr/share/texlive/texmf-dist/fonts/tfm/public/cm/cmr12.tfm
INPUT /usr/share/texlive/texmf-dist/fonts/tfm/public/cm/cmr8.tfm
INPUT /usr/share/texlive/texmf-dist/fonts/tfm/public/cm/cmr6.tfm
INPUT /usr/share/texlive/texmf-dist/fonts/tfm/public/cm/cmmi12.tfm
INPUT /usr/share/texlive/texmf-dist/fonts/tfm/public/cm/cmmi8.tfm
INPUT /usr/share/texlive/texmf-dist/fonts/tfm/public/cm/cmmi6.tfm
INPUT /usr/share/texlive/texmf-dist/fonts/tfm/public/cm/cmsy10.tfm
INPUT /usr/share/texlive/texmf-dist/fonts/tfm/public/cm/cmsy8.tfm
INPUT /usr/share/texlive/texmf-dist/fonts/tfm/public/cm/cmsy6.tfm
INPUT /usr/share/texlive/texmf-dist/fonts/tfm/public/cm/cmex10.tfm
INPUT /home/swallace6859/texmf/fonts/tfm/public/amsfonts/cmextra/cmex8.tfm
INPUT /home/swallace6859/texmf/fonts/tfm/public/amsfonts/cmextra/cmex7.tfm
INPUT /home/swallace6859/texmf/tex/latex/amsfonts/umsa.fd
INPUT /home/swallace6859/texmf/tex/latex/amsfonts/umsa.fd
INPUT /home/swallace6859/texmf/fonts/tfm/public/amsfonts/symbols/msam10.tfm
INPUT /home/swallace6859/texmf/fonts/tfm/public/amsfonts/symbols/msam10.tfm
INPUT /home/swallace6859/texmf/fonts/tfm/public/amsfonts/symbols/msam7.tfm
INPUT /home/swallace6859/texmf/tex/latex/amsfonts/umsb.fd
INPUT /home/swallace6859/texmf/tex/latex/amsfonts/umsb.fd
INPUT /home/swallace6859/texmf/fonts/tfm/public/amsfonts/symbols/msbm10.tfm
INPUT /home/swallace6859/texmf/fonts/tfm/public/amsfonts/symbols/msbm10.tfm
INPUT /home/swallace6859/texmf/fonts/tfm/public/amsfonts/symbols/msbm7.tfm
INPUT /usr/share/texlive/texmf-dist/tex/latex/jknapltx/ursfs.fd
INPUT /usr/share/texlive/texmf-dist/tex/latex/jknapltx/ursfs.fd
INPUT /usr/share/texlive/texmf-dist/fonts/tfm/public/rsfs/rsfs10.tfm
INPUT /usr/share/texlive/texmf-dist/fonts/tfm/public/rsfs/rsfs10.tfm
INPUT /usr/share/texlive/texmf-dist/fonts/tfm/public/rsfs/rsfs5.tfm
INPUT /usr/share/texlive/texmf-dist/fonts/tfm/public/cm/cmti10.tfm
INPUT /usr/share/texlive/texmf-dist/fonts/tfm/public/cm/cmbx10.tfm
INPUT /usr/share/texlive/texmf-dist/fonts/tfm/public/cm/cmbxti10.tfm
INPUT /home/swallace6859/texmf/fonts/tfm/public/amsfonts/cmextra/cmex7.tfm
INPUT /home/swallace6859/texmf/fonts/tfm/public/amsfonts/cmextra/cmex7.tfm
INPUT /home/swallace6859/texmf/fonts/tfm/public/amsfonts/symbols/msam10.tfm
INPUT /home/swallace6859/texmf/fonts/tfm/public/amsfonts/symbols/msam7.tfm
INPUT /home/swallace6859/texmf/fonts/tfm/public/amsfonts/symbols/msam5.tfm
INPUT /home/swallace6859/texmf/fonts/tfm/public/amsfonts/symbols/msbm10.tfm
INPUT /home/swallace6859/texmf/fonts/tfm/public/amsfonts/symbols/msbm7.tfm
INPUT /home/swallace6859/texmf/fonts/tfm/public/amsfonts/symbols/msbm5.tfm
INPUT /usr/share/texlive/texmf-dist/fonts/tfm/public/rsfs/rsfs10.tfm
INPUT /usr/share/texlive/texmf-dist/fonts/tfm/public/rsfs/rsfs7.tfm
INPUT /usr/share/texlive/texmf-dist/fonts/tfm/public/rsfs/rsfs5.tfm
OUTPUT MeasureTheory.pdf
INPUT /var/lib/texmf/fonts/map/pdftex/updmap/pdftex.map
INPUT /usr/share/texlive/texmf-dist/fonts/tfm/public/cm/cmti7.tfm
INPUT /usr/share/texlive/texmf-dist/fonts/tfm/public/cm/cmti7.tfm
INPUT MeasureTheory.aux
INPUT /home/swallace6859/texmf/fonts/type1/public/amsfonts/cm/cmbx10.pfb
INPUT /home/swallace6859/texmf/fonts/type1/public/amsfonts/cm/cmbxti10.pfb
INPUT /home/swallace6859/texmf/fonts/type1/public/amsfonts/cm/cmex10.pfb
INPUT /home/swallace6859/texmf/fonts/type1/public/amsfonts/cm/cmmi10.pfb
INPUT /home/swallace6859/texmf/fonts/type1/public/amsfonts/cm/cmmi5.pfb
INPUT /home/swallace6859/texmf/fonts/type1/public/amsfonts/cm/cmmi7.pfb
INPUT /home/swallace6859/texmf/fonts/type1/public/amsfonts/cm/cmr10.pfb
INPUT /home/swallace6859/texmf/fonts/type1/public/amsfonts/cm/cmr12.pfb
INPUT /home/swallace6859/texmf/fonts/type1/public/amsfonts/cm/cmr17.pfb
INPUT /home/swallace6859/texmf/fonts/type1/public/amsfonts/cm/cmr7.pfb
INPUT /home/swallace6859/texmf/fonts/type1/public/amsfonts/cm/cmsy10.pfb
INPUT /home/swallace6859/texmf/fonts/type1/public/amsfonts/cm/cmsy5.pfb
INPUT /home/swallace6859/texmf/fonts/type1/public/amsfonts/cm/cmsy7.pfb
INPUT /home/swallace6859/texmf/fonts/type1/public/amsfonts/cm/cmti10.pfb
INPUT /home/swallace6859/texmf/fonts/type1/public/amsfonts/symbols/msam10.pfb
INPUT /home/swallace6859/texmf/fonts/type1/public/amsfonts/symbols/msbm10.pfb
