\relax 
\@writefile{toc}{\contentsline {section}{\numberline {1}Preliminaries}{1}}
\@writefile{toc}{\contentsline {subsection}{\numberline {1.1}Lie Groups and Lie Algebras}{1}}
\@writefile{toc}{\contentsline {subsubsection}{\numberline {1.1.1}Lie Groups and an Infinite-Dimensional Setting}{1}}
\@writefile{toc}{\contentsline {subsection}{\numberline {1.2}The Lie Algebra of A Lie Group}{2}}
\@writefile{toc}{\contentsline {subsection}{\numberline {1.3}The Exponential Map}{2}}
\@writefile{toc}{\contentsline {subsection}{\numberline {1.4}Abstract Lie Algebras}{2}}
\@writefile{toc}{\contentsline {subsection}{\numberline {1.5}Adjoint and Coadjoint Orbits}{3}}
\@writefile{toc}{\contentsline {subsubsection}{\numberline {1.5.1}The Adjoint Representation}{3}}
\@writefile{toc}{\contentsline {subsection}{\numberline {1.6}The Coadjoint Representation}{3}}
\@writefile{toc}{\contentsline {subsection}{\numberline {1.7}Central Extension}{4}}
\@writefile{toc}{\contentsline {subsubsection}{\numberline {1.7.1}Lie Algebra Central Extensions}{4}}
\@writefile{toc}{\contentsline {subsubsection}{\numberline {1.7.2}Central Extensions of Lie Groups}{5}}
\@writefile{toc}{\contentsline {subsection}{\numberline {1.8}The Euler Equations for Lie Groups}{6}}
\@writefile{toc}{\contentsline {subsubsection}{\numberline {1.8.1}Poisson Structures on Manifolds}{6}}
\@writefile{toc}{\contentsline {subsubsection}{\numberline {1.8.2}Hamiltonian Equations on the Dual of a Lie Algebra}{8}}
\@writefile{toc}{\contentsline {subsubsection}{\numberline {1.8.3}A Riemannian Approach to the Euler Equations}{8}}
\@writefile{toc}{\contentsline {subsubsection}{\numberline {1.8.4}Poisson Pairs and Bi-Hamiltonian Structures}{9}}
\@writefile{toc}{\contentsline {subsubsection}{\numberline {1.8.5}Integrable Systems and the Liouville-Arnold Theorem}{10}}
\@writefile{toc}{\contentsline {subsection}{\numberline {1.9}Symplectic Reduction}{11}}
\@writefile{toc}{\contentsline {subsubsection}{\numberline {1.9.1}Hamiltonian Group Actions}{11}}
\@writefile{toc}{\contentsline {subsubsection}{\numberline {1.9.2}Symplectic Quotients}{11}}
