\relax 
\providecommand\hyper@newdestlabel[2]{}
\providecommand\HyperFirstAtBeginDocument{\AtBeginDocument}
\HyperFirstAtBeginDocument{\ifx\hyper@anchor\@undefined
\global\let\oldcontentsline\contentsline
\gdef\contentsline#1#2#3#4{\oldcontentsline{#1}{#2}{#3}}
\global\let\oldnewlabel\newlabel
\gdef\newlabel#1#2{\newlabelxx{#1}#2}
\gdef\newlabelxx#1#2#3#4#5#6{\oldnewlabel{#1}{{#2}{#3}}}
\AtEndDocument{\ifx\hyper@anchor\@undefined
\let\contentsline\oldcontentsline
\let\newlabel\oldnewlabel
\fi}
\fi}
\global\let\hyper@last\relax 
\gdef\HyperFirstAtBeginDocument#1{#1}
\providecommand\HyField@AuxAddToFields[1]{}
\providecommand\HyField@AuxAddToCoFields[2]{}
\citation{melissinos1966}
\citation{grslab}
\newlabel{FirstPage}{{}{1}{}{Doc-Start}{}}
\@writefile{toc}{\contentsline {section}{\numberline {1}Introduction}{1}{section*.1}}
\@writefile{toc}{\contentsline {section}{\numberline {2}Experiment}{1}{section*.2}}
\@writefile{lof}{\contentsline {figure}{\numberline {1}{\ignorespaces A block diagram for the scintillation detector.\cite  {grslab} }}{1}{figure.1}}
\newlabel{fig:block-diag}{{1}{1}{A block diagram for the scintillation detector.\cite {grslab}}{figure.1}{}}
\citation{grslab}
\citation{duggan1988}
\@writefile{lof}{\contentsline {figure}{\numberline {2}{\ignorespaces A schematic of the scintillator. \cite  {grslab}}}{2}{figure.2}}
\newlabel{fig:schem}{{2}{2}{A schematic of the scintillator. \cite {grslab}}{figure.2}{}}
\@writefile{lof}{\contentsline {figure}{\numberline {3}{\ignorespaces A typical oscilloscope reading from the scintillator.}}{2}{figure.3}}
\newlabel{fig:osc}{{3}{2}{A typical oscilloscope reading from the scintillator}{figure.3}{}}
\@writefile{toc}{\contentsline {section}{\numberline {3}Results}{2}{section*.3}}
\@writefile{lof}{\contentsline {figure}{\numberline {4}{\ignorespaces The background corrected \ce {^{137}Cs} spectrum. }}{3}{figure.4}}
\newlabel{fig:bground-spec}{{4}{3}{The background corrected \ce {^{137}Cs} spectrum}{figure.4}{}}
\@writefile{lot}{\contentsline {table}{\numberline {I}{\ignorespaces Photopeak Bins of Largest Photopeaks and their FWHM}}{3}{table.1}}
\newlabel{tab:e-cal}{{I}{3}{Photopeak Bins of Largest Photopeaks and their FWHM}{table.1}{}}
\@writefile{lot}{\contentsline {table}{\numberline {II}{\ignorespaces Activity Measurement and Photopeak Efficiences of a 2014 Sample of \ce {^{22}Na}}}{3}{table.2}}
\newlabel{tab:2014-Na}{{II}{3}{Activity Measurement and Photopeak Efficiences of a 2014 Sample of \ce {^{22}Na}}{table.2}{}}
\@writefile{lof}{\contentsline {figure}{\numberline {5}{\ignorespaces The radiation spectrum of the unknown element.}}{3}{figure.5}}
\newlabel{fig:mystery}{{5}{3}{The radiation spectrum of the unknown element}{figure.5}{}}
\@writefile{lot}{\contentsline {table}{\numberline {III}{\ignorespaces Activity Measurements and Photopeak Efficiences of a 2008 Sample of \ce {^{22}Na}}}{3}{table.3}}
\newlabel{tab:2008-Na}{{III}{3}{Activity Measurements and Photopeak Efficiences of a 2008 Sample of \ce {^{22}Na}}{table.3}{}}
\@writefile{lof}{\contentsline {figure}{\numberline {6}{\ignorespaces Fitted Exponential Decay of \ce {^{137}Ba}}}{3}{figure.6}}
\newlabel{fig:half-life}{{6}{3}{Fitted Exponential Decay of \ce {^{137}Ba}}{figure.6}{}}
\@writefile{toc}{\contentsline {section}{\numberline {4}Conclusions}{3}{section*.4}}
\bibdata{sample-paper}
\bibcite{melissinos1966}{{1}{1966}{{Melissinos}}{{}}}
\bibcite{grslab}{{2}{2018}{{DeSerio}}{{}}}
\bibcite{duggan1988}{{3}{1988}{{Duggan}}{{}}}
\global \chardef \firstnote@num\z@ \relax 
\bibstyle{apsrev}
\newlabel{LastPage}{{}{4}{}{page.4}{}}
\@writefile{toc}{\contentsline {section}{\numberline {}References}{4}{section*.5}}
\newlabel{LastBibItem}{{3}{4}{}{section*.5}{}}
\@writefile{toc}{\appendix }
\@writefile{toc}{\contentsline {section}{\numberline {A}Derivation of the Energy Relations}{4}{section*.6}}
\newlabel{sec:eqn-der}{{A}{4}{}{section*.6}{}}
