# Fdb version 3
["bibtex bare-paper"] 1583941869 "bare-paper.aux" "bare-paper.bbl" "bare-paper" 1583982124
  "/home/swallace6859/texmf/bibtex/bst/revtex4/apsrev.bst" 1480098436 44155 dc7233506a001aedcd59cfd90f9fe8d7 ""
  "bare-paper.aux" 1583982123 3913 d14bcf01baa2714544d6dafbc3c35779 ""
  "bare-paper.bcf" 0 -1 0 ""
  "sample-paper.bib" 1582647788 4397 6be05dbeb91152988debde4174e4baa3 ""
  (generated)
  "bare-paper.bbl"
  "bare-paper.blg"
["pdflatex"] 1583982113 "bare-paper.tex" "bare-paper.pdf" "bare-paper" 1583982124
  "/etc/texmf/web2c/texmf.cnf" 1570317231 475 c0e671620eb5563b2130f56340a5fde8 ""
  "/home/swallace6859/texmf/tex/generic/epsf/epsf.sty" 1480098813 27123 4572e7b856182a1e6e9df1c7cc21de80 ""
  "/home/swallace6859/texmf/tex/latex/chemgreek/chemgreek.sty" 1482274864 47119 53e7e2ca71e5a41edbb81f6c1875f9f7 ""
  "/home/swallace6859/texmf/tex/latex/mhchem/mhchem.sty" 1501020023 133420 3062039d2ad5bee1299dd152cc778613 ""
  "/home/swallace6859/texmf/tex/latex/revtex4/10pt.rtx" 1480098838 4047 553cf1a8e102505b0869c4a97b6fbaa5 ""
  "/home/swallace6859/texmf/tex/latex/revtex4/aps.rtx" 1480098838 13987 0b86cc12d66e8235e4043b9207cfa805 ""
  "/home/swallace6859/texmf/tex/latex/revtex4/revsymb.sty" 1480098838 5122 05054b76683edeb09955a9c2a5fc60bb ""
  "/home/swallace6859/texmf/tex/latex/revtex4/revtex4.cls" 1480098838 154141 28faa9466271d5ec788dfd735b4601f1 ""
  "/usr/share/texlive/texmf-dist/fonts/tfm/public/amsfonts/cmextra/cmbsy5.tfm" 1480098698 1120 1e8878807317373affa7f7bba4cf2f6a ""
  "/usr/share/texlive/texmf-dist/fonts/tfm/public/amsfonts/cmextra/cmbsy6.tfm" 1480098698 1124 14ccf5552bc7f77ca02a8a402bea8bfb ""
  "/usr/share/texlive/texmf-dist/fonts/tfm/public/amsfonts/cmextra/cmbsy7.tfm" 1480098698 1120 7f9f170e8aa57527ad6c49feafd45d54 ""
  "/usr/share/texlive/texmf-dist/fonts/tfm/public/amsfonts/cmextra/cmbsy8.tfm" 1480098698 1120 200be8b775682cdf80acad4be5ef57e4 ""
  "/usr/share/texlive/texmf-dist/fonts/tfm/public/amsfonts/cmextra/cmbsy9.tfm" 1480098698 1112 cbc11b646ccc26599775160605aaee3a ""
  "/usr/share/texlive/texmf-dist/fonts/tfm/public/amsfonts/cmextra/cmex7.tfm" 1480098698 1004 54797486969f23fa377b128694d548df ""
  "/usr/share/texlive/texmf-dist/fonts/tfm/public/amsfonts/cmextra/cmex8.tfm" 1480098698 988 bdf658c3bfc2d96d3c8b02cfc1c94c20 ""
  "/usr/share/texlive/texmf-dist/fonts/tfm/public/amsfonts/cmextra/cmex9.tfm" 1480098698 996 a18840b13b499c08ac2de96a99eda4bc ""
  "/usr/share/texlive/texmf-dist/fonts/tfm/public/amsfonts/cmextra/cmmib5.tfm" 1480098698 1496 c79f6914c6d39ffb3759967363d1be79 ""
  "/usr/share/texlive/texmf-dist/fonts/tfm/public/amsfonts/cmextra/cmmib6.tfm" 1480098698 1516 a3bf6a5e7ec4401b1f52092dfaaed242 ""
  "/usr/share/texlive/texmf-dist/fonts/tfm/public/amsfonts/cmextra/cmmib7.tfm" 1480098698 1508 6e807ff901c35a5f1fde0ca275533df8 ""
  "/usr/share/texlive/texmf-dist/fonts/tfm/public/amsfonts/cmextra/cmmib8.tfm" 1480098698 1528 dab402b9d3774ca98baa037071cee7ae ""
  "/usr/share/texlive/texmf-dist/fonts/tfm/public/amsfonts/cmextra/cmmib9.tfm" 1480098698 1528 159d57adcba064aab4277245c826577d ""
  "/usr/share/texlive/texmf-dist/fonts/tfm/public/amsfonts/symbols/msam10.tfm" 1480098698 916 f87d7c45f9c908e672703b83b72241a3 ""
  "/usr/share/texlive/texmf-dist/fonts/tfm/public/amsfonts/symbols/msam5.tfm" 1480098698 924 9904cf1d39e9767e7a3622f2a125a565 ""
  "/usr/share/texlive/texmf-dist/fonts/tfm/public/amsfonts/symbols/msam7.tfm" 1480098698 928 2dc8d444221b7a635bb58038579b861a ""
  "/usr/share/texlive/texmf-dist/fonts/tfm/public/amsfonts/symbols/msbm10.tfm" 1480098698 908 2921f8a10601f252058503cc6570e581 ""
  "/usr/share/texlive/texmf-dist/fonts/tfm/public/amsfonts/symbols/msbm5.tfm" 1480098698 940 75ac932a52f80982a9f8ea75d03a34cf ""
  "/usr/share/texlive/texmf-dist/fonts/tfm/public/amsfonts/symbols/msbm7.tfm" 1480098698 940 228d6584342e91276bf566bcf9716b83 ""
  "/usr/share/texlive/texmf-dist/fonts/tfm/public/cm/cmbsy10.tfm" 1480098701 1116 4e6ba9d7914baa6482fd69f67d126380 ""
  "/usr/share/texlive/texmf-dist/fonts/tfm/public/cm/cmbx10.tfm" 1480098701 1328 c834bbb027764024c09d3d2bf908b5f0 ""
  "/usr/share/texlive/texmf-dist/fonts/tfm/public/cm/cmbx12.tfm" 1480098701 1324 c910af8c371558dc20f2d7822f66fe64 ""
  "/usr/share/texlive/texmf-dist/fonts/tfm/public/cm/cmbx5.tfm" 1480098701 1332 f817c21a1ba54560425663374f1b651a ""
  "/usr/share/texlive/texmf-dist/fonts/tfm/public/cm/cmbx6.tfm" 1480098701 1344 8a0be4fe4d376203000810ad4dc81558 ""
  "/usr/share/texlive/texmf-dist/fonts/tfm/public/cm/cmbx7.tfm" 1480098701 1336 3125ccb448c1a09074e3aa4a9832f130 ""
  "/usr/share/texlive/texmf-dist/fonts/tfm/public/cm/cmbx8.tfm" 1480098701 1332 1fde11373e221473104d6cc5993f046e ""
  "/usr/share/texlive/texmf-dist/fonts/tfm/public/cm/cmbx9.tfm" 1480098701 1328 5442e22a7072966dbaf88ca900acf3f0 ""
  "/usr/share/texlive/texmf-dist/fonts/tfm/public/cm/cmmi6.tfm" 1480098701 1512 f21f83efb36853c0b70002322c1ab3ad ""
  "/usr/share/texlive/texmf-dist/fonts/tfm/public/cm/cmmi8.tfm" 1480098701 1520 eccf95517727cb11801f4f1aee3a21b4 ""
  "/usr/share/texlive/texmf-dist/fonts/tfm/public/cm/cmmi9.tfm" 1480098701 1524 d89e2d087a9828407a196f428428ef4a ""
  "/usr/share/texlive/texmf-dist/fonts/tfm/public/cm/cmmib10.tfm" 1480098701 1524 554068197b70979a55370e6c6495f441 ""
  "/usr/share/texlive/texmf-dist/fonts/tfm/public/cm/cmr10.tfm" 1480098701 1296 45809c5a464d5f32c8f98ba97c1bb47f ""
  "/usr/share/texlive/texmf-dist/fonts/tfm/public/cm/cmr12.tfm" 1480098701 1288 655e228510b4c2a1abe905c368440826 ""
  "/usr/share/texlive/texmf-dist/fonts/tfm/public/cm/cmr6.tfm" 1480098701 1300 b62933e007d01cfd073f79b963c01526 ""
  "/usr/share/texlive/texmf-dist/fonts/tfm/public/cm/cmr8.tfm" 1480098701 1292 21c1c5bfeaebccffdb478fd231a0997d ""
  "/usr/share/texlive/texmf-dist/fonts/tfm/public/cm/cmr9.tfm" 1480098701 1292 6b21b9c2c7bebb38aa2273f7ca0fb3af ""
  "/usr/share/texlive/texmf-dist/fonts/tfm/public/cm/cmsy6.tfm" 1480098701 1116 933a60c408fc0a863a92debe84b2d294 ""
  "/usr/share/texlive/texmf-dist/fonts/tfm/public/cm/cmsy8.tfm" 1480098701 1120 8b7d695260f3cff42e636090a8002094 ""
  "/usr/share/texlive/texmf-dist/fonts/tfm/public/cm/cmsy9.tfm" 1480098701 1116 25a7bf822c58caf309a702ef79f4afbb ""
  "/usr/share/texlive/texmf-dist/fonts/tfm/public/cm/cmti10.tfm" 1480098701 1480 aa8e34af0eb6a2941b776984cf1dfdc4 ""
  "/usr/share/texlive/texmf-dist/fonts/tfm/public/cm/cmti9.tfm" 1480098701 1476 cccc6cc4935c18ec3d5623b77ecb8b74 ""
  "/usr/share/texlive/texmf-dist/fonts/type1/public/amsfonts/cm/cmbx10.pfb" 1480098733 34811 78b52f49e893bcba91bd7581cdc144c0 ""
  "/usr/share/texlive/texmf-dist/fonts/type1/public/amsfonts/cm/cmbx12.pfb" 1480098733 32080 340ef9bf63678554ee606688e7b5339d ""
  "/usr/share/texlive/texmf-dist/fonts/type1/public/amsfonts/cm/cmbx9.pfb" 1480098733 32298 c6d25bb16d1eac01ebdc6d7084126a1e ""
  "/usr/share/texlive/texmf-dist/fonts/type1/public/amsfonts/cm/cmex10.pfb" 1480098733 30251 6afa5cb1d0204815a708a080681d4674 ""
  "/usr/share/texlive/texmf-dist/fonts/type1/public/amsfonts/cm/cmmi10.pfb" 1480098733 36299 5f9df58c2139e7edcf37c8fca4bd384d ""
  "/usr/share/texlive/texmf-dist/fonts/type1/public/amsfonts/cm/cmmi6.pfb" 1480098733 37166 8ab3487cbe3ab49ebce74c29ea2418db ""
  "/usr/share/texlive/texmf-dist/fonts/type1/public/amsfonts/cm/cmmi7.pfb" 1480098733 36281 c355509802a035cadc5f15869451dcee ""
  "/usr/share/texlive/texmf-dist/fonts/type1/public/amsfonts/cm/cmmi9.pfb" 1480098733 36094 798f80770b3b148ceedd006d487db67c ""
  "/usr/share/texlive/texmf-dist/fonts/type1/public/amsfonts/cm/cmr10.pfb" 1480098733 35752 024fb6c41858982481f6968b5fc26508 ""
  "/usr/share/texlive/texmf-dist/fonts/type1/public/amsfonts/cm/cmr5.pfb" 1480098733 31809 8670ca339bf94e56da1fc21c80635e2a ""
  "/usr/share/texlive/texmf-dist/fonts/type1/public/amsfonts/cm/cmr6.pfb" 1480098733 32734 69e00a6b65cedb993666e42eedb3d48f ""
  "/usr/share/texlive/texmf-dist/fonts/type1/public/amsfonts/cm/cmr7.pfb" 1480098733 32762 224316ccc9ad3ca0423a14971cfa7fc1 ""
  "/usr/share/texlive/texmf-dist/fonts/type1/public/amsfonts/cm/cmr8.pfb" 1480098733 32726 0a1aea6fcd6468ee2cf64d891f5c43c8 ""
  "/usr/share/texlive/texmf-dist/fonts/type1/public/amsfonts/cm/cmr9.pfb" 1480098733 33993 9b89b85fd2d9df0482bd47194d1d3bf3 ""
  "/usr/share/texlive/texmf-dist/fonts/type1/public/amsfonts/cm/cmsy10.pfb" 1480098733 32569 5e5ddc8df908dea60932f3c484a54c0d ""
  "/usr/share/texlive/texmf-dist/fonts/type1/public/amsfonts/cm/cmsy5.pfb" 1480098733 32915 7bf7720c61a5b3a7ff25b0964421c9b6 ""
  "/usr/share/texlive/texmf-dist/fonts/type1/public/amsfonts/cm/cmsy6.pfb" 1480098733 32587 1788b0c1c5b39540c96f5e42ccd6dae8 ""
  "/usr/share/texlive/texmf-dist/fonts/type1/public/amsfonts/cm/cmsy7.pfb" 1480098733 32716 08e384dc442464e7285e891af9f45947 ""
  "/usr/share/texlive/texmf-dist/fonts/type1/public/amsfonts/cm/cmsy9.pfb" 1480098733 32442 c975af247b6702f7ca0c299af3616b80 ""
  "/usr/share/texlive/texmf-dist/fonts/type1/public/amsfonts/cm/cmti10.pfb" 1480098733 37944 359e864bd06cde3b1cf57bb20757fb06 ""
  "/usr/share/texlive/texmf-dist/fonts/type1/public/amsfonts/cm/cmti9.pfb" 1480098733 36310 f5ddc6715cc60deb16d9db5ded6a9391 ""
  "/usr/share/texlive/texmf-dist/tex/context/base/mkii/supp-pdf.mkii" 1480098806 71627 94eb9990bed73c364d7f53f960cc8c5b ""
  "/usr/share/texlive/texmf-dist/tex/generic/ifxetex/ifxetex.sty" 1480098815 1458 43ab4710dc82f3edeabecd0d099626b2 ""
  "/usr/share/texlive/texmf-dist/tex/generic/oberdiek/gettitlestring.sty" 1480098815 8237 3b62ef1f7e2c23a328c814b3893bc11f ""
  "/usr/share/texlive/texmf-dist/tex/generic/oberdiek/hobsub-generic.sty" 1517006633 185082 6c11d4e30ed78e2a12957b7e77030856 ""
  "/usr/share/texlive/texmf-dist/tex/generic/oberdiek/hobsub-hyperref.sty" 1480098815 70864 bcd5b216757bd619ae692a151d90085d ""
  "/usr/share/texlive/texmf-dist/tex/generic/unicode-data/CaseFolding.txt" 1498600549 78161 7893b6e005c5a521319a0d12062ae122 ""
  "/usr/share/texlive/texmf-dist/tex/generic/unicode-data/SpecialCasing.txt" 1498600549 16830 e49d6f1fe536f43762ba1ecfe9e53e12 ""
  "/usr/share/texlive/texmf-dist/tex/generic/unicode-data/UnicodeData.txt" 1498600549 1735010 2a52f30695dcc821f0f224650552beaf ""
  "/usr/share/texlive/texmf-dist/tex/latex/amsfonts/amsfonts.sty" 1480098820 5949 3f3fd50a8cc94c3d4cbf4fc66cd3df1c ""
  "/usr/share/texlive/texmf-dist/tex/latex/amsfonts/amssymb.sty" 1480098820 13829 94730e64147574077f8ecfea9bb69af4 ""
  "/usr/share/texlive/texmf-dist/tex/latex/amsfonts/umsa.fd" 1480098820 961 6518c6525a34feb5e8250ffa91731cff ""
  "/usr/share/texlive/texmf-dist/tex/latex/amsfonts/umsb.fd" 1480098820 961 d02606146ba5601b5645f987c92e6193 ""
  "/usr/share/texlive/texmf-dist/tex/latex/amsmath/amsbsy.sty" 1480098820 2210 5c54ab129b848a5071554186d0168766 ""
  "/usr/share/texlive/texmf-dist/tex/latex/amsmath/amsgen.sty" 1480098820 4160 c115536cf8d4ff25aa8c1c9bc4ecb79a ""
  "/usr/share/texlive/texmf-dist/tex/latex/amsmath/amsmath.sty" 1504905757 84352 897a476d96a0681047a5b0f91178a3d2 ""
  "/usr/share/texlive/texmf-dist/tex/latex/amsmath/amsopn.sty" 1480098820 4115 318a66090112f3aa3f415aeb6fe8540f ""
  "/usr/share/texlive/texmf-dist/tex/latex/amsmath/amstext.sty" 1480098820 2431 fe3078ec12fc30287f568596f8e0b948 ""
  "/usr/share/texlive/texmf-dist/tex/latex/cite/chapterbib.sty" 1480098825 26179 8b0c04a31bef17eb7c0577dc065579d2 ""
  "/usr/share/texlive/texmf-dist/tex/latex/graphics-cfg/color.cfg" 1480098830 1213 620bba36b25224fa9b7e1ccb4ecb76fd ""
  "/usr/share/texlive/texmf-dist/tex/latex/graphics-cfg/graphics.cfg" 1480098830 1224 978390e9c2234eab29404bc21b268d1e ""
  "/usr/share/texlive/texmf-dist/tex/latex/graphics-def/pdftex.def" 1515537368 17334 520b9b85ad8a2a48eda3f643e27a5179 ""
  "/usr/share/texlive/texmf-dist/tex/latex/graphics/color.sty" 1480098830 7031 4ca2945c73eec4e726c0da188fbbf50f ""
  "/usr/share/texlive/texmf-dist/tex/latex/graphics/graphics.sty" 1498427532 15275 7d676729b1bedd3e7f3c6717affb366c ""
  "/usr/share/texlive/texmf-dist/tex/latex/graphics/graphicx.sty" 1498427532 9066 649f2ccf62888e3d8c3e57256b70b8e1 ""
  "/usr/share/texlive/texmf-dist/tex/latex/graphics/keyval.sty" 1480098830 2594 d18d5e19aa8239cf867fa670c556d2e9 ""
  "/usr/share/texlive/texmf-dist/tex/latex/graphics/trig.sty" 1480098830 3980 0a268fbfda01e381fa95821ab13b6aee ""
  "/usr/share/texlive/texmf-dist/tex/latex/hyperref/hpdftex.def" 1518041854 51699 9069fc983fff0db91d59a15af144ad62 ""
  "/usr/share/texlive/texmf-dist/tex/latex/hyperref/hyperref.sty" 1518041854 234088 2c849389d62d41c593d9f5176c4116ab ""
  "/usr/share/texlive/texmf-dist/tex/latex/hyperref/nameref.sty" 1480098831 12949 81e4e808884a8f0e276b69410e234656 ""
  "/usr/share/texlive/texmf-dist/tex/latex/hyperref/pd1enc.def" 1518041854 14098 4e70bf396c7c265bd8b0e5cab3fd3d4d ""
  "/usr/share/texlive/texmf-dist/tex/latex/l3kernel/expl3-code.tex" 1519422854 865979 4e627d13dfa51060cef916f5bf16b57a ""
  "/usr/share/texlive/texmf-dist/tex/latex/l3kernel/expl3.sty" 1519422854 9854 30dd9ffac9577d887036852ef4c7ccc0 ""
  "/usr/share/texlive/texmf-dist/tex/latex/l3kernel/l3pdfmode.def" 1519422854 12836 6f78fd4e4ede5f794b4e9523f8e11191 ""
  "/usr/share/texlive/texmf-dist/tex/latex/l3packages/l3keys2e/l3keys2e.sty" 1519337871 4568 4c3ae08ebeee5fea01e0919e229c9b4d ""
  "/usr/share/texlive/texmf-dist/tex/latex/l3packages/xparse/xparse.sty" 1519337871 76828 accb53d91c291d3ec67841b8989ca15c ""
  "/usr/share/texlive/texmf-dist/tex/latex/latexconfig/epstopdf-sys.cfg" 1480098833 678 4792914a8f45be57bb98413425e4c7af ""
  "/usr/share/texlive/texmf-dist/tex/latex/latexconfig/hyperref.cfg" 1480098833 235 6031e5765137be07eed51a510b2b8fb7 ""
  "/usr/share/texlive/texmf-dist/tex/latex/natbib/natbib.sty" 1520210507 45458 f1c6cb3edd91174e966cbbaf88993bcf ""
  "/usr/share/texlive/texmf-dist/tex/latex/oberdiek/auxhook.sty" 1480098836 3834 4363110eb0ef1eb2b71c8fcbcdb6c357 ""
  "/usr/share/texlive/texmf-dist/tex/latex/oberdiek/epstopdf-base.sty" 1480098836 12095 5337833c991d80788a43d3ce26bd1c46 ""
  "/usr/share/texlive/texmf-dist/tex/latex/oberdiek/grfext.sty" 1480098836 7075 2fe3d848bba95f139de11ded085e74aa ""
  "/usr/share/texlive/texmf-dist/tex/latex/oberdiek/kvoptions.sty" 1480098836 22417 1d9df1eb66848aa31b18a593099cf45c ""
  "/usr/share/texlive/texmf-dist/tex/latex/oberdiek/rerunfilecheck.sty" 1480098836 9581 023642318cef9f4677efe364de1e2a27 ""
  "/usr/share/texlive/texmf-dist/tex/latex/tools/bm.sty" 1485129666 12628 f9caa46b01869ce6fad7de6138318b70 ""
  "/usr/share/texlive/texmf-dist/tex/latex/tools/calc.sty" 1480098841 10214 d03d065f799d54f6b7e9b175f8d84279 ""
  "/usr/share/texlive/texmf-dist/tex/latex/tools/longtable.sty" 1480098841 12083 80916157594a8e4354985aaefae4f367 ""
  "/usr/share/texlive/texmf-dist/tex/latex/tools/verbatim.sty" 1480098841 7264 cf839ee7f0c2bfc711b0b88970764569 ""
  "/usr/share/texlive/texmf-dist/tex/latex/url/url.sty" 1480098842 12796 8edb7d69a20b857904dd0ea757c14ec9 ""
  "/usr/share/texlive/texmf-dist/web2c/texmf.cnf" 1520210507 32485 c64754543d8ac501bea6e75e209ea521 ""
  "/usr/share/texmf/web2c/texmf.cnf" 1520210507 32485 c64754543d8ac501bea6e75e209ea521 ""
  "/var/lib/texmf/fonts/map/pdftex/updmap/pdftex.map" 1570317757 125883 5a8e8cee8831b673b8567a1d9242290b ""
  "/var/lib/texmf/web2c/pdftex/pdflatex.fmt" 1570317781 724918 0b92ba8d1732faf9a9f815596201820e ""
  "bare-paper.aux" 1583982123 3913 d14bcf01baa2714544d6dafbc3c35779 ""
  "bare-paper.bbl" 1583941869 1253 5974eab9bd470c3c1bf2539861a1f538 "bibtex bare-paper"
  "bare-paper.out" 1583982123 300 672845b81cd2ad2a719a49b76bbc2775 ""
  "bare-paper.tex" 1583982112 17274 fbfcd25aea7e37d1955fd280ae5aeffe ""
  "img/137Cs-step17.pdf" 1581608350 107864 090786b9c126f90f1104017a413641e7 ""
  "img/block-diag.png" 1582210498 9373 f41c9230994c10f60049afed8a18e2f0 ""
  "img/half-life.png" 1583936118 18891 9f8c7a3f0dc20356a8852620dab38cdc ""
  "img/oscilloscope.png" 1582213652 9406 4ff3438da50355134dd8d0b63465cd10 ""
  "img/schematic.png" 1582210528 102438 870d38f811e95ad67f53469669d7d19e ""
  "img/unknown-sample-spectrum.pdf" 1581608351 107402 d9578f4f73a6e10bb1e646acf4d13254 ""
  (generated)
  "bare-paper.log"
  "bare-paper.out"
  "bare-paper.pdf"
  "c:/Users/samue/bitbucket/samueltwallace/latex-docs/Gamma Ray Spectroscopy/bare-paper.log"
  "c:/Users/samue/bitbucket/samueltwallace/latex-docs/Gamma Ray Spectroscopy/bare-paper.pdf"
  "bare-paper.aux"
