\relax 
\abx@aux@refcontext{nty/global//global/global}
\@writefile{toc}{\boolfalse {citerequest}\boolfalse {citetracker}\boolfalse {pagetracker}\boolfalse {backtracker}\relax }
\@writefile{lof}{\boolfalse {citerequest}\boolfalse {citetracker}\boolfalse {pagetracker}\boolfalse {backtracker}\relax }
\@writefile{lot}{\boolfalse {citerequest}\boolfalse {citetracker}\boolfalse {pagetracker}\boolfalse {backtracker}\relax }
\@writefile{toc}{\defcounter {refsection}{0}\relax }\@writefile{toc}{\contentsline {section}{\numberline {1}Introduction}{1}}
\@writefile{toc}{\defcounter {refsection}{0}\relax }\@writefile{toc}{\contentsline {section}{\numberline {2}Fluid Mechanics Background and History}{2}}
\abx@aux@cite{arstechnica}
\abx@aux@segm{0}{0}{arstechnica}
\abx@aux@cite{falkovich2006}
\abx@aux@segm{0}{0}{falkovich2006}
\abx@aux@cite{cardy2008}
\abx@aux@segm{0}{0}{cardy2008}
\abx@aux@segm{0}{0}{falkovich2006}
\abx@aux@segm{0}{0}{falkovich2006}
\abx@aux@cite{terradekelvin}
\abx@aux@segm{0}{0}{terradekelvin}
\abx@aux@cite{vujinovic2015}
\abx@aux@segm{0}{0}{vujinovic2015}
\abx@aux@segm{0}{0}{vujinovic2015}
\abx@aux@cite{terradestroual}
\abx@aux@segm{0}{0}{terradestroual}
\@writefile{toc}{\defcounter {refsection}{0}\relax }\@writefile{toc}{\contentsline {section}{\numberline {3}Experimental Understanding of Turbulence}{4}}
\@writefile{lof}{\defcounter {refsection}{0}\relax }\@writefile{lof}{\contentsline {figure}{\numberline {1}{\ignorespaces Kelvin-Helmholtz Instability visualized with smoke in a wind tunnel. Time runs forward looking from top to bottom. From \cite {falkovich2006}.}}{4}}
\newlabel{KHI}{{1}{4}}
\abx@aux@segm{0}{0}{terradestroual}
\abx@aux@cite{kolmogorov}
\abx@aux@segm{0}{0}{kolmogorov}
\abx@aux@cite{ruelle}
\abx@aux@segm{0}{0}{ruelle}
\@writefile{lof}{\defcounter {refsection}{0}\relax }\@writefile{lof}{\contentsline {figure}{\numberline {2}{\ignorespaces Stroual instability behind the wreck of a boat. \cite {terradestroual}.}}{5}}
\newlabel{fig:Stroual}{{2}{5}}
\@writefile{toc}{\defcounter {refsection}{0}\relax }\@writefile{toc}{\contentsline {section}{\numberline {4}Theoretical Turbulence and Statistical Mechanics}{5}}
\@writefile{toc}{\defcounter {refsection}{0}\relax }\@writefile{toc}{\contentsline {subsection}{\numberline {4.1}Physical Justification for Statistical Methods}{6}}
\@writefile{toc}{\defcounter {refsection}{0}\relax }\@writefile{toc}{\contentsline {subsection}{\numberline {4.2}Big Ideas}{7}}
\@writefile{toc}{\defcounter {refsection}{0}\relax }\@writefile{toc}{\contentsline {subsection}{\numberline {4.3}Results of Statistical Methods}{8}}
\@writefile{toc}{\defcounter {refsection}{0}\relax }\@writefile{toc}{\contentsline {section}{\numberline {5}Conclusion}{10}}
\abx@aux@refcontextdefaultsdone
\abx@aux@defaultrefcontext{0}{falkovich2006}{nty/global//global/global}
\abx@aux@defaultrefcontext{0}{cardy2008}{nty/global//global/global}
\abx@aux@defaultrefcontext{0}{kolmogorov}{nty/global//global/global}
\abx@aux@defaultrefcontext{0}{arstechnica}{nty/global//global/global}
\abx@aux@defaultrefcontext{0}{ruelle}{nty/global//global/global}
\abx@aux@defaultrefcontext{0}{terradekelvin}{nty/global//global/global}
\abx@aux@defaultrefcontext{0}{terradestroual}{nty/global//global/global}
\abx@aux@defaultrefcontext{0}{vujinovic2015}{nty/global//global/global}
