\relax 
\@writefile{toc}{\contentsline {section}{\numberline {1}Covering Spaces}{1}}
\@writefile{toc}{\contentsline {subsection}{\numberline {1.1}The Definition of Riemann Surfaces}{1}}
\@writefile{toc}{\contentsline {subsection}{\numberline {1.2}Elementary Properties of Holomorphic Mappings}{2}}
\newlabel{thm:local-holomorph}{{5}{2}}
\@writefile{toc}{\contentsline {subsection}{\numberline {1.3}Branched and Unbranched Coverings}{3}}
