\relax 
\@writefile{lof}{\contentsline {figure}{\numberline {1}{\ignorespaces Vector diagram of Wave Vectors}}{2}}
\newlabel{fig:vec-diag}{{1}{2}}
\@writefile{lof}{\contentsline {figure}{\numberline {2}{\ignorespaces A Partial Plot of the decay rate versus temperature. It forms a linear trend.}}{2}}
\newlabel{fig:decay-rate-plot}{{2}{2}}
