\relax 
\@writefile{lot}{\contentsline {table}{\numberline {1}{\ignorespaces Parameters and their sample standard deviations}}{1}}
\newlabel{tab:params}{{1}{1}}
\@writefile{lof}{\contentsline {figure}{\numberline {1}{\ignorespaces A graph of the data and a fit.}}{1}}
\newlabel{fig:graph-eval}{{1}{1}}
