\relax 
\providecommand\hyper@newdestlabel[2]{}
\providecommand\HyperFirstAtBeginDocument{\AtBeginDocument}
\HyperFirstAtBeginDocument{\ifx\hyper@anchor\@undefined
\global\let\oldcontentsline\contentsline
\gdef\contentsline#1#2#3#4{\oldcontentsline{#1}{#2}{#3}}
\global\let\oldnewlabel\newlabel
\gdef\newlabel#1#2{\newlabelxx{#1}#2}
\gdef\newlabelxx#1#2#3#4#5#6{\oldnewlabel{#1}{{#2}{#3}}}
\AtEndDocument{\ifx\hyper@anchor\@undefined
\let\contentsline\oldcontentsline
\let\newlabel\oldnewlabel
\fi}
\fi}
\global\let\hyper@last\relax 
\gdef\HyperFirstAtBeginDocument#1{#1}
\providecommand\HyField@AuxAddToFields[1]{}
\providecommand\HyField@AuxAddToCoFields[2]{}
\citation{mayfield1998}
\citation{bevington2003}
\bibdata{sample-paper}
\bibstyle{apsrev}
\newlabel{LastPage}{{}{1}{}{page.1}{}}
\newlabel{FirstPage}{{}{1}{}{Doc-Start}{}}
\@writefile{toc}{\contentsline {section}{\numberline {1}Introduction}{1}{section*.1}}
\newlabel{eq:euler}{{1}{1}{}{equation.1.1}{}}
\@writefile{toc}{\contentsline {section}{\numberline {2}Experiment}{1}{section*.2}}
\@writefile{lof}{\contentsline {figure}{\numberline {1}{\ignorespaces [Put caption here.]}}{1}{figure.1}}
\newlabel{fig:samplefig}{{1}{1}{[Put caption here.]}{figure.1}{}}
\@writefile{toc}{\contentsline {section}{\numberline {3}Results}{1}{section*.3}}
\@writefile{lot}{\contentsline {table}{\numberline {I}{\ignorespaces [Put table caption here.]}}{1}{table.1}}
\newlabel{tab:table1}{{I}{1}{[Put table caption here.]}{table.1}{}}
\@writefile{toc}{\contentsline {section}{\numberline {4}Conclusions}{1}{section*.4}}
\@writefile{toc}{\appendix }
\@writefile{toc}{\contentsline {section}{\numberline {A}Auxiliary material}{1}{section*.5}}
