\relax 
\providecommand\hyper@newdestlabel[2]{}
\providecommand\HyperFirstAtBeginDocument{\AtBeginDocument}
\HyperFirstAtBeginDocument{\ifx\hyper@anchor\@undefined
\global\let\oldcontentsline\contentsline
\gdef\contentsline#1#2#3#4{\oldcontentsline{#1}{#2}{#3}}
\global\let\oldnewlabel\newlabel
\gdef\newlabel#1#2{\newlabelxx{#1}#2}
\gdef\newlabelxx#1#2#3#4#5#6{\oldnewlabel{#1}{{#2}{#3}}}
\AtEndDocument{\ifx\hyper@anchor\@undefined
\let\contentsline\oldcontentsline
\let\newlabel\oldnewlabel
\fi}
\fi}
\global\let\hyper@last\relax 
\gdef\HyperFirstAtBeginDocument#1{#1}
\providecommand\HyField@AuxAddToFields[1]{}
\providecommand\HyField@AuxAddToCoFields[2]{}
\citation{dlslab}
\citation{benedek1970}
\citation{gillespie1996}
\newlabel{FirstPage}{{}{1}{}{Doc-Start}{}}
\@writefile{toc}{\contentsline {section}{\numberline {1}Introduction}{1}{section*.1}}
\newlabel{eq:pow-spec}{{5}{1}{}{equation.1.5}{}}
\newlabel{eqn:gamma}{{6}{1}{}{equation.1.6}{}}
\newlabel{eq:auto-corr}{{7}{1}{}{equation.1.7}{}}
\citation{dlslab}
\citation{dlslab}
\citation{dlslab}
\@writefile{toc}{\contentsline {section}{\numberline {2}Experiment}{2}{section*.2}}
\@writefile{lof}{\contentsline {figure}{\numberline {1}{\ignorespaces The arrangement of laster, scattering cell, and photodetector. \cite  {dlslab}}}{2}{figure.1}}
\newlabel{fig:expt-setup}{{1}{2}{The arrangement of laster, scattering cell, and photodetector. \cite {dlslab}}{figure.1}{}}
\@writefile{lof}{\contentsline {figure}{\numberline {2}{\ignorespaces A circuit schematic for the Hamamatsu S2382. \cite  {dlslab}}}{2}{figure.2}}
\newlabel{fig:circuit-diag}{{2}{2}{A circuit schematic for the Hamamatsu S2382. \cite {dlslab}}{figure.2}{}}
\@writefile{toc}{\contentsline {section}{\numberline {3}Results}{2}{section*.3}}
\@writefile{lof}{\contentsline {figure}{\numberline {3}{\ignorespaces An Example Autocorrelation Function with Fit}}{2}{figure.3}}
\newlabel{fig:auto-corr}{{3}{2}{An Example Autocorrelation Function with Fit}{figure.3}{}}
\@writefile{lot}{\contentsline {table}{\numberline {I}{\ignorespaces $ \Gamma $ vs $ \qopname  \relax o{sin}^{2}( \theta ) $ for the half-micron sphere from the power spectrum and autocorrelation function.}}{2}{table.1}}
\newlabel{tab:gamma-d-0.5}{{I}{2}{$ \Gamma $ vs $ \sin ^{2}( \theta ) $ for the half-micron sphere from the power spectrum and autocorrelation function}{table.1}{}}
\@writefile{lof}{\contentsline {figure}{\numberline {4}{\ignorespaces A plot of $ \Gamma $ vs $ \qopname  \relax o{sin}^{2}( \theta ) $ for the half-micron power spectrum data set.}}{2}{figure.4}}
\newlabel{fig:gamma-plot-0.5}{{4}{2}{A plot of $ \Gamma $ vs $ \sin ^{2}( \theta ) $ for the half-micron power spectrum data set}{figure.4}{}}
\bibdata{DLS}
\bibcite{dlslab}{{1}{2012}{{Deserio}}{{}}}
\bibcite{benedek1970}{{2}{1970}{{Clark and Benedek}}{{}}}
\bibcite{gillespie1996}{{3}{1996}{{Gillespie}}{{}}}
\global \chardef \firstnote@num\z@ \relax 
\bibstyle{apsrev}
\newlabel{LastPage}{{}{3}{}{page.3}{}}
\@writefile{lot}{\contentsline {table}{\numberline {II}{\ignorespaces  $ \Gamma $ vs $ \qopname  \relax o{sin}^{2}( \theta ) $ for the 1.0 micron spheres.}}{3}{table.2}}
\newlabel{tab:gamma-tab-1.0}{{II}{3}{$ \Gamma $ vs $ \sin ^{2}( \theta ) $ for the 1.0 micron spheres}{table.2}{}}
\@writefile{lof}{\contentsline {figure}{\numberline {5}{\ignorespaces  $ \Gamma $ versus $ \qopname  \relax o{sin}^{2} ( \theta ) $ for the 1 micron spheres.}}{3}{figure.5}}
\newlabel{fig:gamma-plot-1.0}{{5}{3}{$ \Gamma $ versus $ \sin ^{2} ( \theta ) $ for the 1 micron spheres}{figure.5}{}}
\@writefile{toc}{\contentsline {section}{\numberline {4}Conclusions}{3}{section*.4}}
\@writefile{toc}{\contentsline {section}{\numberline {}References}{3}{section*.5}}
\newlabel{LastBibItem}{{3}{3}{}{section*.5}{}}
\@writefile{toc}{\appendix }
