\BOOKMARK [1][-]{section*.1}{Introduction}{}% 1
\BOOKMARK [1][-]{section*.2}{Experiment}{}% 2
\BOOKMARK [1][-]{section*.3}{Results}{}% 3
\BOOKMARK [1][-]{section*.4}{Conclusions}{}% 4
\BOOKMARK [1][-]{section*.5}{References}{}% 5
