This is BibTeX, Version 0.99d (TeX Live 2017/Debian)
Capacity: max_strings=100000, hash_size=100000, hash_prime=85009
The top-level auxiliary file: report.aux
The style file: apsrev.bst
Reallocated singl_function (elt_size=4) to 100 items from 50.
Database file #1: DLS.bib
Reallocated wiz_functions (elt_size=4) to 6000 items from 3000.
Name 1 in "Clark, Lunacek, and Benedek" has a comma at the end for entry benedek1970
while executing---line 2283 of file apsrev.bst
Reallocated singl_function (elt_size=4) to 100 items from 50.
Name 1 in "Clark, Lunacek, and Benedek" has a comma at the end for entry benedek1970
while executing---line 2372 of file apsrev.bst
Name 1 in "Clark, Lunacek, and Benedek" has a comma at the end for entry benedek1970
while executing---line 2372 of file apsrev.bst
Name 1 in "Clark, Lunacek, and Benedek" has a comma at the end for entry benedek1970
while executing---line 2372 of file apsrev.bst
Name 1 in "Clark, Lunacek, and Benedek" has a comma at the end for entry benedek1970
while executing---line 2372 of file apsrev.bst
You've used 3 entries,
            3411 wiz_defined-function locations,
            1171 strings with 10344 characters,
and the built_in function-call counts, 1564 in all, are:
= -- 97
> -- 31
< -- 6
+ -- 24
- -- 8
* -- 186
:= -- 196
add.period$ -- 3
call.type$ -- 3
change.case$ -- 13
chr.to.int$ -- 3
cite$ -- 3
duplicate$ -- 143
empty$ -- 139
format.name$ -- 23
if$ -- 289
int.to.chr$ -- 1
int.to.str$ -- 4
missing$ -- 22
newline$ -- 24
num.names$ -- 9
pop$ -- 36
preamble$ -- 1
purify$ -- 12
quote$ -- 0
skip$ -- 60
stack$ -- 0
substring$ -- 57
swap$ -- 98
text.length$ -- 3
text.prefix$ -- 0
top$ -- 0
type$ -- 18
warning$ -- 0
while$ -- 8
width$ -- 0
write$ -- 44
(There were 5 error messages)
