\begin{thebibliography}{3}
\expandafter\ifx\csname natexlab\endcsname\relax\def\natexlab#1{#1}\fi
\expandafter\ifx\csname bibnamefont\endcsname\relax
  \def\bibnamefont#1{#1}\fi
\expandafter\ifx\csname bibfnamefont\endcsname\relax
  \def\bibfnamefont#1{#1}\fi
\expandafter\ifx\csname citenamefont\endcsname\relax
  \def\citenamefont#1{#1}\fi
\expandafter\ifx\csname url\endcsname\relax
  \def\url#1{\texttt{#1}}\fi
\expandafter\ifx\csname urlprefix\endcsname\relax\def\urlprefix{URL }\fi
\providecommand{\bibinfo}[2]{#2}
\providecommand{\eprint}[2][]{\url{#2}}

\bibitem[{\citenamefont{Deserio}(2012)}]{dlslab}
\bibinfo{author}{\bibfnamefont{B.}~\bibnamefont{Deserio}},
  \emph{\bibinfo{title}{Dynamic light scattering: Experiment dls}}
  (\bibinfo{year}{2012}),
  \urlprefix\url{http://www.phys.ufl.edu/courses/phy4803L/group_IV/light_scattering/dls.pdf}.

\bibitem[{\citenamefont{Clark and Benedek}(1970)}]{benedek1970}
\bibinfo{author}{\bibfnamefont{L.}~\bibnamefont{Clark}} \bibnamefont{and}
  \bibinfo{author}{\bibnamefont{Benedek}}, \bibinfo{journal}{Amer. J. of Phys.}
  \textbf{\bibinfo{volume}{38}}, \bibinfo{pages}{575} (\bibinfo{year}{1970}).

\bibitem[{\citenamefont{Gillespie}(1996)}]{gillespie1996}
\bibinfo{author}{\bibfnamefont{D.~T.} \bibnamefont{Gillespie}},
  \bibinfo{journal}{Amer. J. of Phys.} \textbf{\bibinfo{volume}{64}},
  \bibinfo{pages}{225} (\bibinfo{year}{1996}).

\end{thebibliography}
