\relax 
\@writefile{toc}{\contentsline {section}{\numberline {1}Foundational Material}{1}}
\@writefile{toc}{\contentsline {subsection}{\numberline {1.1}Rudiments of Several Complex Variables}{1}}
\@writefile{toc}{\contentsline {subsubsection}{\numberline {1.1.1}Cauchy's Formula and Applications}{1}}
\@writefile{toc}{\contentsline {subsubsection}{\numberline {1.1.2}Several Variables}{1}}
\@writefile{toc}{\contentsline {subsubsection}{\numberline {1.1.3}Analytic Varieties}{3}}
\@writefile{toc}{\contentsline {subsection}{\numberline {1.2}Complex Manifolds}{4}}
\@writefile{toc}{\contentsline {subsubsection}{\numberline {1.2.1}Complex Manifolds}{4}}
\@writefile{toc}{\contentsline {subsubsection}{\numberline {1.2.2}Submanifolds and Subvarieties}{5}}
\@writefile{toc}{\contentsline {subsubsection}{\numberline {1.2.3}De Rham and Dolbeault Cohomology}{6}}
\@writefile{toc}{\contentsline {subsubsection}{\numberline {1.2.4}Calculus on Complex Manifolds}{7}}
\@writefile{toc}{\contentsline {subsection}{\numberline {1.3}Sheaves and Cohomology}{8}}
\@writefile{toc}{\contentsline {subsubsection}{\numberline {1.3.1}Origins: The Mittag-Leffler Problem}{8}}
\@writefile{toc}{\contentsline {subsubsection}{\numberline {1.3.2}Sheaves}{9}}
\@writefile{toc}{\contentsline {subsubsection}{\numberline {1.3.3}Cohomology of Sheaves}{11}}
\@writefile{toc}{\contentsline {subsubsection}{\numberline {1.3.4}The de Rham Theorem}{12}}
\@writefile{toc}{\contentsline {subsubsection}{\numberline {1.3.5}The Dolbeault Theorem}{13}}
\@writefile{toc}{\contentsline {subsection}{\numberline {1.4}Topology of Manifolds}{13}}
\@writefile{toc}{\contentsline {subsubsection}{\numberline {1.4.1}Intersection of Cycles}{13}}
\@writefile{toc}{\contentsline {subsubsection}{\numberline {1.4.2}Poincar\'e Duality}{14}}
\@writefile{toc}{\contentsline {subsubsection}{\numberline {1.4.3}Intersection of Analytic Cycles}{14}}
\@writefile{toc}{\contentsline {subsection}{\numberline {1.5}Vector Bundles, Connections, and Curvature}{15}}
\@writefile{toc}{\contentsline {subsubsection}{\numberline {1.5.1}Complex and Holomorphic Vector Bundles}{15}}
\@writefile{toc}{\contentsline {subsubsection}{\numberline {1.5.2}Metrics, Connections, and Curvature}{16}}
