\relax 
\@writefile{toc}{\contentsline {section}{\numberline {1}Introduction}{1}}
\@writefile{toc}{\contentsline {section}{\numberline {2}Euler Equations for a Perfect Fluid}{1}}
\newlabel{eq:burg-invis}{{1}{2}}
