\relax 
\@writefile{toc}{\contentsline {section}{\numberline {1}Hamiltonian and Lagrangian Systems}{1}}
\@writefile{toc}{\contentsline {subsection}{\numberline {1.1}Symplectic Geometry}{1}}
\@writefile{toc}{\contentsline {subsection}{\numberline {1.2}Hamiltonain Vector Fields and Poisson Brackets}{1}}
\@writefile{toc}{\contentsline {subsection}{\numberline {1.3}Integral Invariants, Energy Surfaces, and Stability}{3}}
\@writefile{toc}{\contentsline {subsection}{\numberline {1.4}Lagrangian Systems}{3}}
\@writefile{toc}{\contentsline {subsection}{\numberline {1.5}The Legendre Transformation}{4}}
\@writefile{toc}{\contentsline {subsection}{\numberline {1.6}Variational Principles in Mechanics}{4}}
