\relax 
\@writefile{toc}{\contentsline {section}{\numberline {1}Hamiltonian Systems With Symmetry}{1}}
\@writefile{toc}{\contentsline {subsection}{\numberline {1.1}The Momentum Mapping}{1}}
\@writefile{toc}{\contentsline {subsection}{\numberline {1.2}Reduction of Phase Spaces with Symmetry}{2}}
\newlabel{thm:1}{{4}{2}}
\newlabel{lem:1}{{1}{2}}
\newlabel{thm:4}{{5}{3}}
\newlabel{thm:2}{{6}{3}}
\@writefile{toc}{\contentsline {subsection}{\numberline {1.3}Hamiltonian Systems on Lie Groups and the Rigid Body}{4}}
\newlabel{thm:3}{{8}{5}}
\@writefile{toc}{\contentsline {subsection}{\numberline {1.4}The Topology of Simple Mechanical Systems}{8}}
\newlabel{cor:1}{{4}{11}}
\newlabel{prop:1}{{18}{14}}
