\relax 
\@writefile{toc}{\contentsline {section}{\numberline {1}Hamilton-Jacobi Theory and Mathematical Physics}{1}}
\@writefile{toc}{\contentsline {subsection}{\numberline {1.1}Time-Dependent Systems}{1}}
\@writefile{toc}{\contentsline {subsection}{\numberline {1.2}Canonical Transformations and Hamilton-Jacobi Theory}{3}}
\@writefile{toc}{\contentsline {subsection}{\numberline {1.3}Lagrangian Submanifolds}{7}}
